{
  "cars": [
    {
      "reg": "PK02 JWP",
      "make": "Renault",
      "model": "Scenic",
      "value": 1800,
      "manufactureYear": 2002,
      "vehicleType": "Hatchback",
      "engineSize": 1600
    },
    {
      "reg": "HY04 PHY",
      "make": "Ford",
      "model": "Fiesta",
      "value": 2300,
      "manufactureYear": 2004,
      "vehicleType": "Hatchback",
      "engineSize": 1200
    },
    {
      "reg": "TK04 JWP",
      "make": "BMW",
      "model": "M3",
      "value": 8300,
      "manufactureYear": 2004,
      "vehicleType": "Hatchback",
      "engineSize": 3300
    },
    {
      "reg": "PK02 JWP",
      "make": "Renault",
      "model": "Scenic",
      "value": 1800,
      "manufactureYear": 2002,
      "vehicleType": "Hatchback",
      "engineSize": 1600
    },
    {
      "reg": "PK02 JWP",
      "make": "Renault",
      "model": "Scenic",
      "value": 1800,
      "manufactureYear": 2002,
      "vehicleType": "Hatchback",
      "engineSize": 1600
    }
    
  ]
}